^C:\USERS\VASIC\TFS2\OPENCVLIB\OPENCV_V45\OPENCV_V45\OPENCV_V45.CPP
C:\WINDOWS\GLOBALIZATION\SORTING\SORTDEFAULT.NLS
C:\USERS\VASIC\TFS2\OPENCVLIB\OPENCV_V45\OPENCV_V45\OPENCV_V45.H
C:\USERS\VASIC\LIBRARIES\OPENCV-ANDROID-SDK\SDK\NATIVE\JNI\INCLUDE\OPENCV2\OPENCV.HPP
C:\USERS\VASIC\LIBRARIES\OPENCV-ANDROID-SDK\SDK\NATIVE\JNI\INCLUDE\OPENCV2\OPENCV_MODULES.HPP
C:\USERS\VASIC\LIBRARIES\OPENCV-ANDROID-SDK\SDK\NATIVE\JNI\INCLUDE\OPENCV2\CORE.HPP
C:\USERS\VASIC\LIBRARIES\OPENCV-ANDROID-SDK\SDK\NATIVE\JNI\INCLUDE\OPENCV2\CORE\CVDEF.H
C:\MICROSOFT\ANDROIDNDK\ANDROID-NDK-R16B\SOURCES\CXX-STL\LLVM-LIBC++\INCLUDE\LIMITS
C:\MICROSOFT\ANDROIDNDK\ANDROID-NDK-R16B\SOURCES\CXX-STL\LLVM-LIBC++\INCLUDE\__CONFIG
C:\MICROSOFT\ANDROIDNDK\ANDROID-NDK-R16B\SYSROOT\USR\INCLUDE\FEATURES.H
C:\MICROSOFT\ANDROIDNDK\ANDROID-NDK-R16B\SYSROOT\USR\INCLUDE\SYS\CDEFS.H
C:\MICROSOFT\ANDROIDNDK\ANDROID-NDK-R16B\SYSROOT\USR\INCLUDE\ANDROID\API-LEVEL.H
C:\MICROSOFT\ANDROIDNDK\ANDROID-NDK-R16B\SYSROOT\USR\INCLUDE\ANDROID\VERSIONING.H
C:\MICROSOFT\ANDROIDNDK\ANDROID-NDK-R16B\SYSROOT\USR\INCLUDE\PTHREAD.H
C:\MICROSOFT\ANDROIDNDK\ANDROID-NDK-R16B\SOURCES\CXX-STL\LLVM-LIBC++\INCLUDE\TYPE_TRAITS
C:\MICROSOFT\ANDROIDNDK\ANDROID-NDK-R16B\SOURCES\CXX-STL\LLVM-LIBC++\INCLUDE\CSTDDEF
C:\MICROSOFT\ANDROIDNDK\ANDROID-NDK-R16B\TOOLCHAINS\LLVM\PREBUILT\WINDOWS\LIB64\CLANG\5.0.300080\INCLUDE\STDDEF.H
C:\MICROSOFT\ANDROIDNDK\ANDROID-NDK-R16B\TOOLCHAINS\LLVM\PREBUILT\WINDOWS\LIB64\CLANG\5.0.300080\INCLUDE\__STDDEF_MAX_ALIGN_T.H
C:\MICROSOFT\ANDROIDNDK\ANDROID-NDK-R16B\SOURCES\CXX-STL\LLVM-LIBC++\INCLUDE\__NULLPTR
C:\MICROSOFT\ANDROIDNDK\ANDROID-NDK-R16B\SOURCES\CXX-STL\LLVM-LIBC++\INCLUDE\__UNDEF_MACROS
C:\USERS\VASIC\LIBRARIES\OPENCV-ANDROID-SDK\SDK\NATIVE\JNI\INCLUDE\OPENCV2\CORE\HAL\INTERFACE.H
C:\MICROSOFT\ANDROIDNDK\ANDROID-NDK-R16B\SOURCES\CXX-STL\LLVM-LIBC++\INCLUDE\CSTDINT
C:\MICROSOFT\ANDROIDNDK\ANDROID-NDK-R16B\SOURCES\CXX-STL\LLVM-LIBC++\INCLUDE\STDINT.H
C:\MICROSOFT\ANDROIDNDK\ANDROID-NDK-R16B\TOOLCHAINS\LLVM\PREBUILT\WINDOWS\LIB64\CLANG\5.0.300080\INCLUDE\STDINT.H
C:\MICROSOFT\ANDROIDNDK\ANDROID-NDK-R16B\SYSROOT\USR\INCLUDE\STDINT.H
C:\MICROSOFT\ANDROIDNDK\ANDROID-NDK-R16B\SYSROOT\USR\INCLUDE\BITS\WCHAR_LIMITS.H
C:\MICROSOFT\ANDROIDNDK\ANDROID-NDK-R16B\SOURCES\CXX-STL\LLVM-LIBC++\INCLUDE\STDDEF.H
C:\USERS\VASIC\LIBRARIES\OPENCV-ANDROID-SDK\SDK\NATIVE\JNI\INCLUDE\OPENCV2\CORE\CV_CPU_DISPATCH.H
C:\MICROSOFT\ANDROIDNDK\ANDROID-NDK-R16B\TOOLCHAINS\LLVM\PREBUILT\WINDOWS\LIB64\CLANG\5.0.300080\INCLUDE\ARM_NEON.H
C:\MICROSOFT\ANDROIDNDK\ANDROID-NDK-R16B\SOURCES\CXX-STL\LLVM-LIBC++\INCLUDE\ARRAY
C:\MICROSOFT\ANDROIDNDK\ANDROID-NDK-R16B\SOURCES\CXX-STL\LLVM-LIBC++\INCLUDE\__TUPLE
C:\MICROSOFT\ANDROIDNDK\ANDROID-NDK-R16B\SOURCES\CXX-STL\LLVM-LIBC++\INCLUDE\UTILITY
C:\MICROSOFT\ANDROIDNDK\ANDROID-NDK-R16B\SOURCES\CXX-STL\LLVM-LIBC++\INCLUDE\INITIALIZER_LIST
C:\MICROSOFT\ANDROIDNDK\ANDROID-NDK-R16B\SOURCES\CXX-STL\LLVM-LIBC++\INCLUDE\CSTRING
C:\MICROSOFT\ANDROIDNDK\ANDROID-NDK-R16B\SOURCES\CXX-STL\LLVM-LIBC++\INCLUDE\STRING.H
C:\MICROSOFT\ANDROIDNDK\ANDROID-NDK-R16B\SYSROOT\USR\INCLUDE\STRING.H
C:\MICROSOFT\ANDROIDNDK\ANDROID-NDK-R16B\SYSROOT\USR\INCLUDE\XLOCALE.H
C:\MICROSOFT\ANDROIDNDK\ANDROID-NDK-R16B\SYSROOT\USR\INCLUDE\BITS\STRCASECMP.H
C:\MICROSOFT\ANDROIDNDK\ANDROID-NDK-R16B\SYSROOT\USR\INCLUDE\SYS\TYPES.H
C:\MICROSOFT\ANDROIDNDK\ANDROID-NDK-R16B\SYSROOT\USR\INCLUDE\LINUX\TYPES.H
C:\MICROSOFT\ANDROIDNDK\ANDROID-NDK-R16B\SYSROOT\USR\INCLUDE\ARM-LINUX-ANDROIDEABI\ASM\TYPES.H
C:\MICROSOFT\ANDROIDNDK\ANDROID-NDK-R16B\SYSROOT\USR\INCLUDE\ASM-GENERIC\INT-LL64.H
C:\MICROSOFT\ANDROIDNDK\ANDROID-NDK-R16B\SYSROOT\USR\INCLUDE\ARM-LINUX-ANDROIDEABI\ASM\BITSPERLONG.H
C:\MICROSOFT\ANDROIDNDK\ANDROID-NDK-R16B\SYSROOT\USR\INCLUDE\ASM-GENERIC\BITSPERLONG.H
C:\MICROSOFT\ANDROIDNDK\ANDROID-NDK-R16B\SYSROOT\USR\INCLUDE\LINUX\POSIX_TYPES.H
C:\MICROSOFT\ANDROIDNDK\ANDROID-NDK-R16B\SYSROOT\USR\INCLUDE\LINUX\STDDEF.H
C:\MICROSOFT\ANDROIDNDK\ANDROID-NDK-R16B\SYSROOT\USR\INCLUDE\LINUX\COMPILER.H
C:\MICROSOFT\ANDROIDNDK\ANDROID-NDK-R16B\SYSROOT\USR\INCLUDE\ARM-LINUX-ANDROIDEABI\ASM\POSIX_TYPES.H
C:\MICROSOFT\ANDROIDNDK\ANDROID-NDK-R16B\SYSROOT\USR\INCLUDE\ASM-GENERIC\POSIX_TYPES.H
C:\MICROSOFT\ANDROIDNDK\ANDROID-NDK-R16B\SYSROOT\USR\INCLUDE\BITS\PTHREAD_TYPES.H
C:\MICROSOFT\ANDROIDNDK\ANDROID-NDK-R16B\SYSROOT\USR\INCLUDE\STRINGS.H
C:\MICROSOFT\ANDROIDNDK\ANDROID-NDK-R16B\SYSROOT\USR\INCLUDE\ANDROID\LEGACY_STRINGS_INLINES.H
C:\MICROSOFT\ANDROIDNDK\ANDROID-NDK-R16B\SOURCES\CXX-STL\LLVM-LIBC++\INCLUDE\__DEBUG
C:\MICROSOFT\ANDROIDNDK\ANDROID-NDK-R16B\SOURCES\CXX-STL\LLVM-LIBC++\INCLUDE\ITERATOR
C:\MICROSOFT\ANDROIDNDK\ANDROID-NDK-R16B\SOURCES\CXX-STL\LLVM-LIBC++\INCLUDE\IOSFWD
C:\MICROSOFT\ANDROIDNDK\ANDROID-NDK-R16B\SOURCES\CXX-STL\LLVM-LIBC++\INCLUDE\WCHAR.H
C:\MICROSOFT\ANDROIDNDK\ANDROID-NDK-R16B\SOURCES\ANDROID\SUPPORT\INCLUDE\WCHAR.H
C:\MICROSOFT\ANDROIDNDK\ANDROID-NDK-R16B\SYSROOT\USR\INCLUDE\WCHAR.H
C:\MICROSOFT\ANDROIDNDK\ANDROID-NDK-R16B\SOURCES\CXX-STL\LLVM-LIBC++\INCLUDE\STDIO.H
C:\MICROSOFT\ANDROIDNDK\ANDROID-NDK-R16B\SOURCES\ANDROID\SUPPORT\INCLUDE\STDIO.H
C:\MICROSOFT\ANDROIDNDK\ANDROID-NDK-R16B\SYSROOT\USR\INCLUDE\STDIO.H
C:\MICROSOFT\ANDROIDNDK\ANDROID-NDK-R16B\TOOLCHAINS\LLVM\PREBUILT\WINDOWS\LIB64\CLANG\5.0.300080\INCLUDE\STDARG.H
C:\MICROSOFT\ANDROIDNDK\ANDROID-NDK-R16B\SYSROOT\USR\INCLUDE\BITS\SEEK_CONSTANTS.H
C:\MICROSOFT\ANDROIDNDK\ANDROID-NDK-R16B\SYSROOT\USR\INCLUDE\TIME.H
C:\MICROSOFT\ANDROIDNDK\ANDROID-NDK-R16B\SYSROOT\USR\INCLUDE\SYS\TIME.H
C:\MICROSOFT\ANDROIDNDK\ANDROID-NDK-R16B\SYSROOT\USR\INCLUDE\LINUX\TIME.H
C:\MICROSOFT\ANDROIDNDK\ANDROID-NDK-R16B\SYSROOT\USR\INCLUDE\SYS\SELECT.H
C:\MICROSOFT\ANDROIDNDK\ANDROID-NDK-R16B\SYSROOT\USR\INCLUDE\SIGNAL.H
C:\MICROSOFT\ANDROIDNDK\ANDROID-NDK-R16B\SYSROOT\USR\INCLUDE\ARM-LINUX-ANDROIDEABI\ASM\SIGCONTEXT.H
C:\MICROSOFT\ANDROIDNDK\ANDROID-NDK-R16B\SYSROOT\USR\INCLUDE\BITS\TIMESPEC.H
C:\MICROSOFT\ANDROIDNDK\ANDROID-NDK-R16B\SOURCES\CXX-STL\LLVM-LIBC++\INCLUDE\LIMITS.H
C:\MICROSOFT\ANDROIDNDK\ANDROID-NDK-R16B\TOOLCHAINS\LLVM\PREBUILT\WINDOWS\LIB64\CLANG\5.0.300080\INCLUDE\LIMITS.H
C:\MICROSOFT\ANDROIDNDK\ANDROID-NDK-R16B\SYSROOT\USR\INCLUDE\LIMITS.H
C:\MICROSOFT\ANDROIDNDK\ANDROID-NDK-R16B\SOURCES\CXX-STL\LLVM-LIBC++\INCLUDE\FLOAT.H
C:\MICROSOFT\ANDROIDNDK\ANDROID-NDK-R16B\TOOLCHAINS\LLVM\PREBUILT\WINDOWS\LIB64\CLANG\5.0.300080\INCLUDE\FLOAT.H
C:\MICROSOFT\ANDROIDNDK\ANDROID-NDK-R16B\SYSROOT\USR\INCLUDE\LINUX\LIMITS.H
C:\MICROSOFT\ANDROIDNDK\ANDROID-NDK-R16B\SYSROOT\USR\INCLUDE\BITS\POSIX_LIMITS.H
C:\MICROSOFT\ANDROIDNDK\ANDROID-NDK-R16B\SYSROOT\USR\INCLUDE\LINUX\SIGNAL.H
C:\MICROSOFT\ANDROIDNDK\ANDROID-NDK-R16B\SYSROOT\USR\INCLUDE\ARM-LINUX-ANDROIDEABI\ASM\SIGNAL.H
C:\MICROSOFT\ANDROIDNDK\ANDROID-NDK-R16B\SYSROOT\USR\INCLUDE\ASM-GENERIC\SIGNAL-DEFS.H
C:\MICROSOFT\ANDROIDNDK\ANDROID-NDK-R16B\SYSROOT\USR\INCLUDE\ARM-LINUX-ANDROIDEABI\ASM\SIGINFO.H
C:\MICROSOFT\ANDROIDNDK\ANDROID-NDK-R16B\SYSROOT\USR\INCLUDE\ASM-GENERIC\SIGINFO.H
C:\MICROSOFT\ANDROIDNDK\ANDROID-NDK-R16B\SYSROOT\USR\INCLUDE\SYS\UCONTEXT.H
C:\MICROSOFT\ANDROIDNDK\ANDROID-NDK-R16B\SYSROOT\USR\INCLUDE\SYS\USER.H
C:\MICROSOFT\ANDROIDNDK\ANDROID-NDK-R16B\SYSROOT\USR\INCLUDE\ANDROID\LEGACY_SIGNAL_INLINES.H
C:\MICROSOFT\ANDROIDNDK\ANDROID-NDK-R16B\SYSROOT\USR\INCLUDE\BITS\MBSTATE_T.H
C:\MICROSOFT\ANDROIDNDK\ANDROID-NDK-R16B\SYSROOT\USR\INCLUDE\BITS\WCTYPE.H
C:\MICROSOFT\ANDROIDNDK\ANDROID-NDK-R16B\SOURCES\CXX-STL\LLVM-LIBC++\INCLUDE\__FUNCTIONAL_BASE
C:\MICROSOFT\ANDROIDNDK\ANDROID-NDK-R16B\SOURCES\CXX-STL\LLVM-LIBC++\INCLUDE\TYPEINFO
C:\MICROSOFT\ANDROIDNDK\ANDROID-NDK-R16B\SOURCES\CXX-STL\LLVM-LIBC++\INCLUDE\EXCEPTION
C:\MICROSOFT\ANDROIDNDK\ANDROID-NDK-R16B\SOURCES\CXX-STL\LLVM-LIBC++\INCLUDE\CSTDLIB
C:\MICROSOFT\ANDROIDNDK\ANDROID-NDK-R16B\SOURCES\CXX-STL\LLVM-LIBC++\INCLUDE\STDLIB.H
C:\MICROSOFT\ANDROIDNDK\ANDROID-NDK-R16B\SOURCES\ANDROID\SUPPORT\INCLUDE\STDLIB.H
C:\MICROSOFT\ANDROIDNDK\ANDROID-NDK-R16B\SYSROOT\USR\INCLUDE\STDLIB.H
C:\MICROSOFT\ANDROIDNDK\ANDROID-NDK-R16B\SYSROOT\USR\INCLUDE\ALLOCA.H
C:\MICROSOFT\ANDROIDNDK\ANDROID-NDK-R16B\SYSROOT\USR\INCLUDE\MALLOC.H
C:\MICROSOFT\ANDROIDNDK\ANDROID-NDK-R16B\SYSROOT\USR\INCLUDE\ANDROID\LEGACY_STDLIB_INLINES.H
C:\MICROSOFT\ANDROIDNDK\ANDROID-NDK-R16B\SOURCES\CXX-STL\LLVM-LIBC++\INCLUDE\NEW
C:\MICROSOFT\ANDROIDNDK\ANDROID-NDK-R16B\SOURCES\CXX-STL\LLVM-LIBC++\INCLUDE\ALGORITHM
C:\MICROSOFT\ANDROIDNDK\ANDROID-NDK-R16B\SOURCES\CXX-STL\LLVM-LIBC++\INCLUDE\MEMORY
C:\MICROSOFT\ANDROIDNDK\ANDROID-NDK-R16B\SOURCES\CXX-STL\LLVM-LIBC++\INCLUDE\TUPLE
C:\MICROSOFT\ANDROIDNDK\ANDROID-NDK-R16B\SOURCES\CXX-STL\LLVM-LIBC++\INCLUDE\STDEXCEPT
C:\MICROSOFT\ANDROIDNDK\ANDROID-NDK-R16B\SOURCES\CXX-STL\LLVM-LIBC++\INCLUDE\CASSERT
C:\MICROSOFT\ANDROIDNDK\ANDROID-NDK-R16B\SYSROOT\USR\INCLUDE\ASSERT.H
C:\MICROSOFT\ANDROIDNDK\ANDROID-NDK-R16B\SOURCES\CXX-STL\LLVM-LIBC++\INCLUDE\ATOMIC
C:\USERS\VASIC\LIBRARIES\OPENCV-ANDROID-SDK\SDK\NATIVE\JNI\INCLUDE\OPENCV2\CORE\VERSION.HPP
C:\USERS\VASIC\LIBRARIES\OPENCV-ANDROID-SDK\SDK\NATIVE\JNI\INCLUDE\OPENCV2\CORE\BASE.HPP
C:\MICROSOFT\ANDROIDNDK\ANDROID-NDK-R16B\SOURCES\CXX-STL\LLVM-LIBC++\INCLUDE\CLIMITS
C:\USERS\VASIC\LIBRARIES\OPENCV-ANDROID-SDK\SDK\NATIVE\JNI\INCLUDE\OPENCV2\CORE\CVSTD.HPP
C:\MICROSOFT\ANDROIDNDK\ANDROID-NDK-R16B\SOURCES\CXX-STL\LLVM-LIBC++\INCLUDE\CCTYPE
C:\MICROSOFT\ANDROIDNDK\ANDROID-NDK-R16B\SOURCES\CXX-STL\LLVM-LIBC++\INCLUDE\CTYPE.H
C:\MICROSOFT\ANDROIDNDK\ANDROID-NDK-R16B\SYSROOT\USR\INCLUDE\CTYPE.H
C:\MICROSOFT\ANDROIDNDK\ANDROID-NDK-R16B\SOURCES\CXX-STL\LLVM-LIBC++\INCLUDE\STRING
C:\MICROSOFT\ANDROIDNDK\ANDROID-NDK-R16B\SOURCES\CXX-STL\LLVM-LIBC++\INCLUDE\STRING_VIEW
C:\MICROSOFT\ANDROIDNDK\ANDROID-NDK-R16B\SOURCES\CXX-STL\LLVM-LIBC++\INCLUDE\__STRING
C:\MICROSOFT\ANDROIDNDK\ANDROID-NDK-R16B\SOURCES\CXX-STL\LLVM-LIBC++\INCLUDE\CSTDIO
C:\MICROSOFT\ANDROIDNDK\ANDROID-NDK-R16B\SOURCES\CXX-STL\LLVM-LIBC++\INCLUDE\CWCHAR
C:\MICROSOFT\ANDROIDNDK\ANDROID-NDK-R16B\SOURCES\CXX-STL\LLVM-LIBC++\INCLUDE\CWCTYPE
C:\MICROSOFT\ANDROIDNDK\ANDROID-NDK-R16B\SOURCES\CXX-STL\LLVM-LIBC++\INCLUDE\WCTYPE.H
C:\MICROSOFT\ANDROIDNDK\ANDROID-NDK-R16B\SOURCES\ANDROID\SUPPORT\INCLUDE\WCTYPE.H
C:\MICROSOFT\ANDROIDNDK\ANDROID-NDK-R16B\SYSROOT\USR\INCLUDE\WCTYPE.H
C:\MICROSOFT\ANDROIDNDK\ANDROID-NDK-R16B\SOURCES\CXX-STL\LLVM-LIBC++\INCLUDE\CMATH
C:\MICROSOFT\ANDROIDNDK\ANDROID-NDK-R16B\SOURCES\CXX-STL\LLVM-LIBC++\INCLUDE\MATH.H
C:\MICROSOFT\ANDROIDNDK\ANDROID-NDK-R16B\SOURCES\ANDROID\SUPPORT\INCLUDE\MATH.H
C:\MICROSOFT\ANDROIDNDK\ANDROID-NDK-R16B\SYSROOT\USR\INCLUDE\MATH.H
C:\USERS\VASIC\LIBRARIES\OPENCV-ANDROID-SDK\SDK\NATIVE\JNI\INCLUDE\OPENCV2\CORE\CVSTD_WRAPPER.HPP
C:\USERS\VASIC\LIBRARIES\OPENCV-ANDROID-SDK\SDK\NATIVE\JNI\INCLUDE\OPENCV2\CORE\NEON_UTILS.HPP
C:\USERS\VASIC\LIBRARIES\OPENCV-ANDROID-SDK\SDK\NATIVE\JNI\INCLUDE\OPENCV2\CORE\VSX_UTILS.HPP
C:\USERS\VASIC\LIBRARIES\OPENCV-ANDROID-SDK\SDK\NATIVE\JNI\INCLUDE\OPENCV2\CORE\CHECK.HPP
C:\USERS\VASIC\LIBRARIES\OPENCV-ANDROID-SDK\SDK\NATIVE\JNI\INCLUDE\OPENCV2\CORE\TRAITS.HPP
C:\USERS\VASIC\LIBRARIES\OPENCV-ANDROID-SDK\SDK\NATIVE\JNI\INCLUDE\OPENCV2\CORE\MATX.HPP
C:\USERS\VASIC\LIBRARIES\OPENCV-ANDROID-SDK\SDK\NATIVE\JNI\INCLUDE\OPENCV2\CORE\SATURATE.HPP
C:\USERS\VASIC\LIBRARIES\OPENCV-ANDROID-SDK\SDK\NATIVE\JNI\INCLUDE\OPENCV2\CORE\FAST_MATH.HPP
C:\USERS\VASIC\LIBRARIES\OPENCV-ANDROID-SDK\SDK\NATIVE\JNI\INCLUDE\OPENCV2\CORE\TYPES.HPP
C:\MICROSOFT\ANDROIDNDK\ANDROID-NDK-R16B\SOURCES\CXX-STL\LLVM-LIBC++\INCLUDE\CFLOAT
C:\MICROSOFT\ANDROIDNDK\ANDROID-NDK-R16B\SOURCES\CXX-STL\LLVM-LIBC++\INCLUDE\VECTOR
C:\MICROSOFT\ANDROIDNDK\ANDROID-NDK-R16B\SOURCES\CXX-STL\LLVM-LIBC++\INCLUDE\__BIT_REFERENCE
C:\MICROSOFT\ANDROIDNDK\ANDROID-NDK-R16B\SOURCES\CXX-STL\LLVM-LIBC++\INCLUDE\__SPLIT_BUFFER
C:\USERS\VASIC\LIBRARIES\OPENCV-ANDROID-SDK\SDK\NATIVE\JNI\INCLUDE\OPENCV2\CORE\MAT.HPP
C:\USERS\VASIC\LIBRARIES\OPENCV-ANDROID-SDK\SDK\NATIVE\JNI\INCLUDE\OPENCV2\CORE\BUFFERPOOL.HPP
C:\USERS\VASIC\LIBRARIES\OPENCV-ANDROID-SDK\SDK\NATIVE\JNI\INCLUDE\OPENCV2\CORE\MAT.INL.HPP
C:\USERS\VASIC\LIBRARIES\OPENCV-ANDROID-SDK\SDK\NATIVE\JNI\INCLUDE\OPENCV2\CORE\PERSISTENCE.HPP
C:\USERS\VASIC\LIBRARIES\OPENCV-ANDROID-SDK\SDK\NATIVE\JNI\INCLUDE\OPENCV2\CORE\OPERATIONS.HPP
C:\USERS\VASIC\LIBRARIES\OPENCV-ANDROID-SDK\SDK\NATIVE\JNI\INCLUDE\OPENCV2\CORE\CVSTD.INL.HPP
C:\MICROSOFT\ANDROIDNDK\ANDROID-NDK-R16B\SOURCES\CXX-STL\LLVM-LIBC++\INCLUDE\COMPLEX
C:\MICROSOFT\ANDROIDNDK\ANDROID-NDK-R16B\SOURCES\CXX-STL\LLVM-LIBC++\INCLUDE\SSTREAM
C:\MICROSOFT\ANDROIDNDK\ANDROID-NDK-R16B\SOURCES\CXX-STL\LLVM-LIBC++\INCLUDE\OSTREAM
C:\MICROSOFT\ANDROIDNDK\ANDROID-NDK-R16B\SOURCES\CXX-STL\LLVM-LIBC++\INCLUDE\IOS
C:\MICROSOFT\ANDROIDNDK\ANDROID-NDK-R16B\SOURCES\CXX-STL\LLVM-LIBC++\INCLUDE\__LOCALE
C:\MICROSOFT\ANDROIDNDK\ANDROID-NDK-R16B\SOURCES\CXX-STL\LLVM-LIBC++\INCLUDE\MUTEX
C:\MICROSOFT\ANDROIDNDK\ANDROID-NDK-R16B\SOURCES\CXX-STL\LLVM-LIBC++\INCLUDE\__MUTEX_BASE
C:\MICROSOFT\ANDROIDNDK\ANDROID-NDK-R16B\SOURCES\CXX-STL\LLVM-LIBC++\INCLUDE\CHRONO
C:\MICROSOFT\ANDROIDNDK\ANDROID-NDK-R16B\SOURCES\CXX-STL\LLVM-LIBC++\INCLUDE\CTIME
C:\MICROSOFT\ANDROIDNDK\ANDROID-NDK-R16B\SOURCES\CXX-STL\LLVM-LIBC++\INCLUDE\RATIO
C:\MICROSOFT\ANDROIDNDK\ANDROID-NDK-R16B\SOURCES\CXX-STL\LLVM-LIBC++\INCLUDE\SYSTEM_ERROR
C:\MICROSOFT\ANDROIDNDK\ANDROID-NDK-R16B\SOURCES\CXX-STL\LLVM-LIBC++\INCLUDE\CERRNO
C:\MICROSOFT\ANDROIDNDK\ANDROID-NDK-R16B\SOURCES\CXX-STL\LLVM-LIBC++\INCLUDE\ERRNO.H
C:\MICROSOFT\ANDROIDNDK\ANDROID-NDK-R16B\SYSROOT\USR\INCLUDE\ERRNO.H
C:\MICROSOFT\ANDROIDNDK\ANDROID-NDK-R16B\SYSROOT\USR\INCLUDE\LINUX\ERRNO.H
C:\MICROSOFT\ANDROIDNDK\ANDROID-NDK-R16B\SYSROOT\USR\INCLUDE\ARM-LINUX-ANDROIDEABI\ASM\ERRNO.H
C:\MICROSOFT\ANDROIDNDK\ANDROID-NDK-R16B\SYSROOT\USR\INCLUDE\ASM-GENERIC\ERRNO.H
C:\MICROSOFT\ANDROIDNDK\ANDROID-NDK-R16B\SYSROOT\USR\INCLUDE\ASM-GENERIC\ERRNO-BASE.H
C:\MICROSOFT\ANDROIDNDK\ANDROID-NDK-R16B\SYSROOT\USR\INCLUDE\ANDROID\LEGACY_ERRNO_INLINES.H
C:\MICROSOFT\ANDROIDNDK\ANDROID-NDK-R16B\SOURCES\CXX-STL\LLVM-LIBC++\INCLUDE\__THREADING_SUPPORT
C:\MICROSOFT\ANDROIDNDK\ANDROID-NDK-R16B\SYSROOT\USR\INCLUDE\SCHED.H
C:\MICROSOFT\ANDROIDNDK\ANDROID-NDK-R16B\SYSROOT\USR\INCLUDE\LINUX\SCHED.H
C:\MICROSOFT\ANDROIDNDK\ANDROID-NDK-R16B\SOURCES\CXX-STL\LLVM-LIBC++\INCLUDE\FUNCTIONAL
C:\MICROSOFT\ANDROIDNDK\ANDROID-NDK-R16B\SOURCES\CXX-STL\LLVM-LIBC++\INCLUDE\LOCALE.H
C:\MICROSOFT\ANDROIDNDK\ANDROID-NDK-R16B\SOURCES\ANDROID\SUPPORT\INCLUDE\LOCALE.H
C:\MICROSOFT\ANDROIDNDK\ANDROID-NDK-R16B\SYSROOT\USR\INCLUDE\LOCALE.H
C:\MICROSOFT\ANDROIDNDK\ANDROID-NDK-R16B\SOURCES\CXX-STL\LLVM-LIBC++\INCLUDE\STREAMBUF
C:\MICROSOFT\ANDROIDNDK\ANDROID-NDK-R16B\SOURCES\CXX-STL\LLVM-LIBC++\INCLUDE\LOCALE
C:\MICROSOFT\ANDROIDNDK\ANDROID-NDK-R16B\SOURCES\CXX-STL\LLVM-LIBC++\INCLUDE\CSTDARG
C:\MICROSOFT\ANDROIDNDK\ANDROID-NDK-R16B\SOURCES\CXX-STL\LLVM-LIBC++\INCLUDE\__BSD_LOCALE_FALLBACKS.H
C:\MICROSOFT\ANDROIDNDK\ANDROID-NDK-R16B\SOURCES\CXX-STL\LLVM-LIBC++\INCLUDE\BITSET
C:\MICROSOFT\ANDROIDNDK\ANDROID-NDK-R16B\SOURCES\CXX-STL\LLVM-LIBC++\INCLUDE\ISTREAM
C:\USERS\VASIC\LIBRARIES\OPENCV-ANDROID-SDK\SDK\NATIVE\JNI\INCLUDE\OPENCV2\CORE\UTILITY.HPP
C:\USERS\VASIC\LIBRARIES\OPENCV-ANDROID-SDK\SDK\NATIVE\JNI\INCLUDE\OPENCV2\CORE\OPTIM.HPP
C:\USERS\VASIC\LIBRARIES\OPENCV-ANDROID-SDK\SDK\NATIVE\JNI\INCLUDE\OPENCV2\CORE\OVX.HPP
C:\USERS\VASIC\LIBRARIES\OPENCV-ANDROID-SDK\SDK\NATIVE\JNI\INCLUDE\OPENCV2\CALIB3D.HPP
C:\USERS\VASIC\LIBRARIES\OPENCV-ANDROID-SDK\SDK\NATIVE\JNI\INCLUDE\OPENCV2\FEATURES2D.HPP
C:\USERS\VASIC\LIBRARIES\OPENCV-ANDROID-SDK\SDK\NATIVE\JNI\INCLUDE\OPENCV2\FLANN\MINIFLANN.HPP
C:\USERS\VASIC\LIBRARIES\OPENCV-ANDROID-SDK\SDK\NATIVE\JNI\INCLUDE\OPENCV2\FLANN\DEFINES.H
C:\USERS\VASIC\LIBRARIES\OPENCV-ANDROID-SDK\SDK\NATIVE\JNI\INCLUDE\OPENCV2\FLANN\CONFIG.H
C:\USERS\VASIC\LIBRARIES\OPENCV-ANDROID-SDK\SDK\NATIVE\JNI\INCLUDE\OPENCV2\CORE\AFFINE.HPP
C:\USERS\VASIC\LIBRARIES\OPENCV-ANDROID-SDK\SDK\NATIVE\JNI\INCLUDE\OPENCV2\DNN.HPP
C:\USERS\VASIC\LIBRARIES\OPENCV-ANDROID-SDK\SDK\NATIVE\JNI\INCLUDE\OPENCV2\DNN\DNN.HPP
C:\USERS\VASIC\LIBRARIES\OPENCV-ANDROID-SDK\SDK\NATIVE\JNI\INCLUDE\OPENCV2\CORE\ASYNC.HPP
C:\USERS\VASIC\LIBRARIES\OPENCV-ANDROID-SDK\SDK\NATIVE\JNI\INCLUDE\OPENCV2\DNN\VERSION.HPP
C:\USERS\VASIC\LIBRARIES\OPENCV-ANDROID-SDK\SDK\NATIVE\JNI\INCLUDE\OPENCV2\DNN\DICT.HPP
C:\MICROSOFT\ANDROIDNDK\ANDROID-NDK-R16B\SOURCES\CXX-STL\LLVM-LIBC++\INCLUDE\MAP
C:\MICROSOFT\ANDROIDNDK\ANDROID-NDK-R16B\SOURCES\CXX-STL\LLVM-LIBC++\INCLUDE\__TREE
C:\USERS\VASIC\LIBRARIES\OPENCV-ANDROID-SDK\SDK\NATIVE\JNI\INCLUDE\OPENCV2\DNN\LAYER.HPP
C:\USERS\VASIC\LIBRARIES\OPENCV-ANDROID-SDK\SDK\NATIVE\JNI\INCLUDE\OPENCV2\DNN\DNN.INL.HPP
C:\USERS\VASIC\LIBRARIES\OPENCV-ANDROID-SDK\SDK\NATIVE\JNI\INCLUDE\OPENCV2\DNN\UTILS\INFERENCE_ENGINE.HPP
C:\USERS\VASIC\LIBRARIES\OPENCV-ANDROID-SDK\SDK\NATIVE\JNI\INCLUDE\OPENCV2\FLANN.HPP
C:\USERS\VASIC\LIBRARIES\OPENCV-ANDROID-SDK\SDK\NATIVE\JNI\INCLUDE\OPENCV2\FLANN\FLANN_BASE.HPP
C:\USERS\VASIC\LIBRARIES\OPENCV-ANDROID-SDK\SDK\NATIVE\JNI\INCLUDE\OPENCV2\FLANN\GENERAL.H
C:\USERS\VASIC\LIBRARIES\OPENCV-ANDROID-SDK\SDK\NATIVE\JNI\INCLUDE\OPENCV2\FLANN\MATRIX.H
C:\USERS\VASIC\LIBRARIES\OPENCV-ANDROID-SDK\SDK\NATIVE\JNI\INCLUDE\OPENCV2\FLANN\PARAMS.H
C:\USERS\VASIC\LIBRARIES\OPENCV-ANDROID-SDK\SDK\NATIVE\JNI\INCLUDE\OPENCV2\FLANN\ANY.H
C:\MICROSOFT\ANDROIDNDK\ANDROID-NDK-R16B\SOURCES\CXX-STL\LLVM-LIBC++\INCLUDE\IOSTREAM
C:\USERS\VASIC\LIBRARIES\OPENCV-ANDROID-SDK\SDK\NATIVE\JNI\INCLUDE\OPENCV2\FLANN\SAVING.H
C:\USERS\VASIC\LIBRARIES\OPENCV-ANDROID-SDK\SDK\NATIVE\JNI\INCLUDE\OPENCV2\FLANN\NN_INDEX.H
C:\USERS\VASIC\LIBRARIES\OPENCV-ANDROID-SDK\SDK\NATIVE\JNI\INCLUDE\OPENCV2\FLANN\RESULT_SET.H
C:\MICROSOFT\ANDROIDNDK\ANDROID-NDK-R16B\SOURCES\CXX-STL\LLVM-LIBC++\INCLUDE\SET
C:\USERS\VASIC\LIBRARIES\OPENCV-ANDROID-SDK\SDK\NATIVE\JNI\INCLUDE\OPENCV2\FLANN\ALL_INDICES.H
C:\USERS\VASIC\LIBRARIES\OPENCV-ANDROID-SDK\SDK\NATIVE\JNI\INCLUDE\OPENCV2\FLANN\KDTREE_INDEX.H
C:\USERS\VASIC\LIBRARIES\OPENCV-ANDROID-SDK\SDK\NATIVE\JNI\INCLUDE\OPENCV2\FLANN\DYNAMIC_BITSET.H
C:\USERS\VASIC\LIBRARIES\OPENCV-ANDROID-SDK\SDK\NATIVE\JNI\INCLUDE\OPENCV2\FLANN\DIST.H
C:\USERS\VASIC\LIBRARIES\OPENCV-ANDROID-SDK\SDK\NATIVE\JNI\INCLUDE\OPENCV2\FLANN\HEAP.H
C:\USERS\VASIC\LIBRARIES\OPENCV-ANDROID-SDK\SDK\NATIVE\JNI\INCLUDE\OPENCV2\FLANN\ALLOCATOR.H
C:\USERS\VASIC\LIBRARIES\OPENCV-ANDROID-SDK\SDK\NATIVE\JNI\INCLUDE\OPENCV2\FLANN\RANDOM.H
C:\USERS\VASIC\LIBRARIES\OPENCV-ANDROID-SDK\SDK\NATIVE\JNI\INCLUDE\OPENCV2\FLANN\KDTREE_SINGLE_INDEX.H
C:\USERS\VASIC\LIBRARIES\OPENCV-ANDROID-SDK\SDK\NATIVE\JNI\INCLUDE\OPENCV2\FLANN\KMEANS_INDEX.H
C:\USERS\VASIC\LIBRARIES\OPENCV-ANDROID-SDK\SDK\NATIVE\JNI\INCLUDE\OPENCV2\FLANN\LOGGER.H
C:\USERS\VASIC\LIBRARIES\OPENCV-ANDROID-SDK\SDK\NATIVE\JNI\INCLUDE\OPENCV2\FLANN\COMPOSITE_INDEX.H
C:\USERS\VASIC\LIBRARIES\OPENCV-ANDROID-SDK\SDK\NATIVE\JNI\INCLUDE\OPENCV2\FLANN\LINEAR_INDEX.H
C:\USERS\VASIC\LIBRARIES\OPENCV-ANDROID-SDK\SDK\NATIVE\JNI\INCLUDE\OPENCV2\FLANN\HIERARCHICAL_CLUSTERING_INDEX.H
C:\USERS\VASIC\LIBRARIES\OPENCV-ANDROID-SDK\SDK\NATIVE\JNI\INCLUDE\OPENCV2\FLANN\LSH_INDEX.H
C:\USERS\VASIC\LIBRARIES\OPENCV-ANDROID-SDK\SDK\NATIVE\JNI\INCLUDE\OPENCV2\FLANN\LSH_TABLE.H
C:\MICROSOFT\ANDROIDNDK\ANDROID-NDK-R16B\SOURCES\CXX-STL\LLVM-LIBC++\INCLUDE\IOMANIP
C:\MICROSOFT\ANDROIDNDK\ANDROID-NDK-R16B\SOURCES\CXX-STL\LLVM-LIBC++\INCLUDE\UNORDERED_MAP
C:\MICROSOFT\ANDROIDNDK\ANDROID-NDK-R16B\SOURCES\CXX-STL\LLVM-LIBC++\INCLUDE\__HASH_TABLE
C:\USERS\VASIC\LIBRARIES\OPENCV-ANDROID-SDK\SDK\NATIVE\JNI\INCLUDE\OPENCV2\FLANN\AUTOTUNED_INDEX.H
C:\USERS\VASIC\LIBRARIES\OPENCV-ANDROID-SDK\SDK\NATIVE\JNI\INCLUDE\OPENCV2\FLANN\GROUND_TRUTH.H
C:\USERS\VASIC\LIBRARIES\OPENCV-ANDROID-SDK\SDK\NATIVE\JNI\INCLUDE\OPENCV2\FLANN\INDEX_TESTING.H
C:\USERS\VASIC\LIBRARIES\OPENCV-ANDROID-SDK\SDK\NATIVE\JNI\INCLUDE\OPENCV2\FLANN\TIMER.H
C:\USERS\VASIC\LIBRARIES\OPENCV-ANDROID-SDK\SDK\NATIVE\JNI\INCLUDE\OPENCV2\FLANN\SAMPLING.H
C:\USERS\VASIC\LIBRARIES\OPENCV-ANDROID-SDK\SDK\NATIVE\JNI\INCLUDE\OPENCV2\HIGHGUI.HPP
C:\USERS\VASIC\LIBRARIES\OPENCV-ANDROID-SDK\SDK\NATIVE\JNI\INCLUDE\OPENCV2\IMGCODECS.HPP
C:\USERS\VASIC\LIBRARIES\OPENCV-ANDROID-SDK\SDK\NATIVE\JNI\INCLUDE\OPENCV2\VIDEOIO.HPP
C:\USERS\VASIC\LIBRARIES\OPENCV-ANDROID-SDK\SDK\NATIVE\JNI\INCLUDE\OPENCV2\IMGPROC.HPP
C:\USERS\VASIC\LIBRARIES\OPENCV-ANDROID-SDK\SDK\NATIVE\JNI\INCLUDE\OPENCV2\ML.HPP
C:\USERS\VASIC\LIBRARIES\OPENCV-ANDROID-SDK\SDK\NATIVE\JNI\INCLUDE\OPENCV2\ML\ML.INL.HPP
C:\USERS\VASIC\LIBRARIES\OPENCV-ANDROID-SDK\SDK\NATIVE\JNI\INCLUDE\OPENCV2\OBJDETECT.HPP
C:\USERS\VASIC\LIBRARIES\OPENCV-ANDROID-SDK\SDK\NATIVE\JNI\INCLUDE\OPENCV2\OBJDETECT\DETECTION_BASED_TRACKER.HPP
C:\USERS\VASIC\LIBRARIES\OPENCV-ANDROID-SDK\SDK\NATIVE\JNI\INCLUDE\OPENCV2\PHOTO.HPP
C:\USERS\VASIC\LIBRARIES\OPENCV-ANDROID-SDK\SDK\NATIVE\JNI\INCLUDE\OPENCV2\STITCHING.HPP
C:\USERS\VASIC\LIBRARIES\OPENCV-ANDROID-SDK\SDK\NATIVE\JNI\INCLUDE\OPENCV2\STITCHING\WARPERS.HPP
C:\USERS\VASIC\LIBRARIES\OPENCV-ANDROID-SDK\SDK\NATIVE\JNI\INCLUDE\OPENCV2\STITCHING\DETAIL\WARPERS.HPP
C:\USERS\VASIC\LIBRARIES\OPENCV-ANDROID-SDK\SDK\NATIVE\JNI\INCLUDE\OPENCV2\CORE\CUDA.HPP
C:\USERS\VASIC\LIBRARIES\OPENCV-ANDROID-SDK\SDK\NATIVE\JNI\INCLUDE\OPENCV2\CORE\CUDA_TYPES.HPP
C:\USERS\VASIC\LIBRARIES\OPENCV-ANDROID-SDK\SDK\NATIVE\JNI\INCLUDE\OPENCV2\CORE\CUDA.INL.HPP
C:\USERS\VASIC\LIBRARIES\OPENCV-ANDROID-SDK\SDK\NATIVE\JNI\INCLUDE\OPENCV2\STITCHING\DETAIL\WARPERS_INL.HPP
C:\USERS\VASIC\LIBRARIES\OPENCV-ANDROID-SDK\SDK\NATIVE\JNI\INCLUDE\OPENCV2\STITCHING\DETAIL\MATCHERS.HPP
C:\USERS\VASIC\LIBRARIES\OPENCV-ANDROID-SDK\SDK\NATIVE\JNI\INCLUDE\OPENCV2\STITCHING\DETAIL\MOTION_ESTIMATORS.HPP
C:\USERS\VASIC\LIBRARIES\OPENCV-ANDROID-SDK\SDK\NATIVE\JNI\INCLUDE\OPENCV2\STITCHING\DETAIL\UTIL.HPP
C:\MICROSOFT\ANDROIDNDK\ANDROID-NDK-R16B\SOURCES\CXX-STL\LLVM-LIBC++\INCLUDE\LIST
C:\USERS\VASIC\LIBRARIES\OPENCV-ANDROID-SDK\SDK\NATIVE\JNI\INCLUDE\OPENCV2\STITCHING\DETAIL\UTIL_INL.HPP
C:\MICROSOFT\ANDROIDNDK\ANDROID-NDK-R16B\SOURCES\CXX-STL\LLVM-LIBC++\INCLUDE\QUEUE
C:\MICROSOFT\ANDROIDNDK\ANDROID-NDK-R16B\SOURCES\CXX-STL\LLVM-LIBC++\INCLUDE\DEQUE
C:\USERS\VASIC\LIBRARIES\OPENCV-ANDROID-SDK\SDK\NATIVE\JNI\INCLUDE\OPENCV2\STITCHING\DETAIL\CAMERA.HPP
C:\USERS\VASIC\LIBRARIES\OPENCV-ANDROID-SDK\SDK\NATIVE\JNI\INCLUDE\OPENCV2\STITCHING\DETAIL\EXPOSURE_COMPENSATE.HPP
C:\USERS\VASIC\LIBRARIES\OPENCV-ANDROID-SDK\SDK\NATIVE\JNI\INCLUDE\OPENCV2\STITCHING\DETAIL\SEAM_FINDERS.HPP
C:\USERS\VASIC\LIBRARIES\OPENCV-ANDROID-SDK\SDK\NATIVE\JNI\INCLUDE\OPENCV2\STITCHING\DETAIL\BLENDERS.HPP
C:\USERS\VASIC\LIBRARIES\OPENCV-ANDROID-SDK\SDK\NATIVE\JNI\INCLUDE\OPENCV2\VIDEO.HPP
C:\USERS\VASIC\LIBRARIES\OPENCV-ANDROID-SDK\SDK\NATIVE\JNI\INCLUDE\OPENCV2\VIDEO\TRACKING.HPP
C:\USERS\VASIC\LIBRARIES\OPENCV-ANDROID-SDK\SDK\NATIVE\JNI\INCLUDE\OPENCV2\VIDEO\BACKGROUND_SEGM.HPP
^C:\USERS\VASIC\TFS2\OPENCVLIB\OPENCV_V45\OPENCV_V45\FACEDETECT.CPP
C:\WINDOWS\GLOBALIZATION\SORTING\SORTDEFAULT.NLS
C:\USERS\VASIC\TFS2\OPENCVLIB\OPENCV_V45\OPENCV_V45\FACEDETECT.H
C:\MICROSOFT\ANDROIDNDK\ANDROID-NDK-R16B\SOURCES\CXX-STL\LLVM-LIBC++\INCLUDE\IOSTREAM
C:\MICROSOFT\ANDROIDNDK\ANDROID-NDK-R16B\SOURCES\CXX-STL\LLVM-LIBC++\INCLUDE\__CONFIG
C:\MICROSOFT\ANDROIDNDK\ANDROID-NDK-R16B\SYSROOT\USR\INCLUDE\FEATURES.H
C:\MICROSOFT\ANDROIDNDK\ANDROID-NDK-R16B\SYSROOT\USR\INCLUDE\SYS\CDEFS.H
C:\MICROSOFT\ANDROIDNDK\ANDROID-NDK-R16B\SYSROOT\USR\INCLUDE\ANDROID\API-LEVEL.H
C:\MICROSOFT\ANDROIDNDK\ANDROID-NDK-R16B\SYSROOT\USR\INCLUDE\ANDROID\VERSIONING.H
C:\MICROSOFT\ANDROIDNDK\ANDROID-NDK-R16B\SYSROOT\USR\INCLUDE\PTHREAD.H
C:\MICROSOFT\ANDROIDNDK\ANDROID-NDK-R16B\SOURCES\CXX-STL\LLVM-LIBC++\INCLUDE\IOS
C:\MICROSOFT\ANDROIDNDK\ANDROID-NDK-R16B\SOURCES\CXX-STL\LLVM-LIBC++\INCLUDE\IOSFWD
C:\MICROSOFT\ANDROIDNDK\ANDROID-NDK-R16B\SOURCES\CXX-STL\LLVM-LIBC++\INCLUDE\WCHAR.H
C:\MICROSOFT\ANDROIDNDK\ANDROID-NDK-R16B\SOURCES\ANDROID\SUPPORT\INCLUDE\WCHAR.H
C:\MICROSOFT\ANDROIDNDK\ANDROID-NDK-R16B\SYSROOT\USR\INCLUDE\WCHAR.H
C:\MICROSOFT\ANDROIDNDK\ANDROID-NDK-R16B\SOURCES\CXX-STL\LLVM-LIBC++\INCLUDE\STDIO.H
C:\MICROSOFT\ANDROIDNDK\ANDROID-NDK-R16B\SOURCES\ANDROID\SUPPORT\INCLUDE\STDIO.H
C:\MICROSOFT\ANDROIDNDK\ANDROID-NDK-R16B\SYSROOT\USR\INCLUDE\STDIO.H
C:\MICROSOFT\ANDROIDNDK\ANDROID-NDK-R16B\SYSROOT\USR\INCLUDE\SYS\TYPES.H
C:\MICROSOFT\ANDROIDNDK\ANDROID-NDK-R16B\SOURCES\CXX-STL\LLVM-LIBC++\INCLUDE\STDDEF.H
C:\MICROSOFT\ANDROIDNDK\ANDROID-NDK-R16B\TOOLCHAINS\LLVM\PREBUILT\WINDOWS\LIB64\CLANG\5.0.300080\INCLUDE\STDDEF.H
C:\MICROSOFT\ANDROIDNDK\ANDROID-NDK-R16B\TOOLCHAINS\LLVM\PREBUILT\WINDOWS\LIB64\CLANG\5.0.300080\INCLUDE\__STDDEF_MAX_ALIGN_T.H
C:\MICROSOFT\ANDROIDNDK\ANDROID-NDK-R16B\SOURCES\CXX-STL\LLVM-LIBC++\INCLUDE\__NULLPTR
C:\MICROSOFT\ANDROIDNDK\ANDROID-NDK-R16B\SOURCES\CXX-STL\LLVM-LIBC++\INCLUDE\STDINT.H
C:\MICROSOFT\ANDROIDNDK\ANDROID-NDK-R16B\TOOLCHAINS\LLVM\PREBUILT\WINDOWS\LIB64\CLANG\5.0.300080\INCLUDE\STDINT.H
C:\MICROSOFT\ANDROIDNDK\ANDROID-NDK-R16B\SYSROOT\USR\INCLUDE\STDINT.H
C:\MICROSOFT\ANDROIDNDK\ANDROID-NDK-R16B\SYSROOT\USR\INCLUDE\BITS\WCHAR_LIMITS.H
C:\MICROSOFT\ANDROIDNDK\ANDROID-NDK-R16B\SYSROOT\USR\INCLUDE\LINUX\TYPES.H
C:\MICROSOFT\ANDROIDNDK\ANDROID-NDK-R16B\SYSROOT\USR\INCLUDE\ARM-LINUX-ANDROIDEABI\ASM\TYPES.H
C:\MICROSOFT\ANDROIDNDK\ANDROID-NDK-R16B\SYSROOT\USR\INCLUDE\ASM-GENERIC\INT-LL64.H
C:\MICROSOFT\ANDROIDNDK\ANDROID-NDK-R16B\SYSROOT\USR\INCLUDE\ARM-LINUX-ANDROIDEABI\ASM\BITSPERLONG.H
C:\MICROSOFT\ANDROIDNDK\ANDROID-NDK-R16B\SYSROOT\USR\INCLUDE\ASM-GENERIC\BITSPERLONG.H
C:\MICROSOFT\ANDROIDNDK\ANDROID-NDK-R16B\SYSROOT\USR\INCLUDE\LINUX\POSIX_TYPES.H
C:\MICROSOFT\ANDROIDNDK\ANDROID-NDK-R16B\SYSROOT\USR\INCLUDE\LINUX\STDDEF.H
C:\MICROSOFT\ANDROIDNDK\ANDROID-NDK-R16B\SYSROOT\USR\INCLUDE\LINUX\COMPILER.H
C:\MICROSOFT\ANDROIDNDK\ANDROID-NDK-R16B\SYSROOT\USR\INCLUDE\ARM-LINUX-ANDROIDEABI\ASM\POSIX_TYPES.H
C:\MICROSOFT\ANDROIDNDK\ANDROID-NDK-R16B\SYSROOT\USR\INCLUDE\ASM-GENERIC\POSIX_TYPES.H
C:\MICROSOFT\ANDROIDNDK\ANDROID-NDK-R16B\SYSROOT\USR\INCLUDE\BITS\PTHREAD_TYPES.H
C:\MICROSOFT\ANDROIDNDK\ANDROID-NDK-R16B\TOOLCHAINS\LLVM\PREBUILT\WINDOWS\LIB64\CLANG\5.0.300080\INCLUDE\STDARG.H
C:\MICROSOFT\ANDROIDNDK\ANDROID-NDK-R16B\SYSROOT\USR\INCLUDE\BITS\SEEK_CONSTANTS.H
C:\MICROSOFT\ANDROIDNDK\ANDROID-NDK-R16B\SYSROOT\USR\INCLUDE\TIME.H
C:\MICROSOFT\ANDROIDNDK\ANDROID-NDK-R16B\SYSROOT\USR\INCLUDE\SYS\TIME.H
C:\MICROSOFT\ANDROIDNDK\ANDROID-NDK-R16B\SYSROOT\USR\INCLUDE\LINUX\TIME.H
C:\MICROSOFT\ANDROIDNDK\ANDROID-NDK-R16B\SYSROOT\USR\INCLUDE\SYS\SELECT.H
C:\MICROSOFT\ANDROIDNDK\ANDROID-NDK-R16B\SYSROOT\USR\INCLUDE\SIGNAL.H
C:\MICROSOFT\ANDROIDNDK\ANDROID-NDK-R16B\SYSROOT\USR\INCLUDE\ARM-LINUX-ANDROIDEABI\ASM\SIGCONTEXT.H
C:\MICROSOFT\ANDROIDNDK\ANDROID-NDK-R16B\SYSROOT\USR\INCLUDE\BITS\TIMESPEC.H
C:\MICROSOFT\ANDROIDNDK\ANDROID-NDK-R16B\SOURCES\CXX-STL\LLVM-LIBC++\INCLUDE\LIMITS.H
C:\MICROSOFT\ANDROIDNDK\ANDROID-NDK-R16B\TOOLCHAINS\LLVM\PREBUILT\WINDOWS\LIB64\CLANG\5.0.300080\INCLUDE\LIMITS.H
C:\MICROSOFT\ANDROIDNDK\ANDROID-NDK-R16B\SYSROOT\USR\INCLUDE\LIMITS.H
C:\MICROSOFT\ANDROIDNDK\ANDROID-NDK-R16B\SOURCES\CXX-STL\LLVM-LIBC++\INCLUDE\FLOAT.H
C:\MICROSOFT\ANDROIDNDK\ANDROID-NDK-R16B\TOOLCHAINS\LLVM\PREBUILT\WINDOWS\LIB64\CLANG\5.0.300080\INCLUDE\FLOAT.H
C:\MICROSOFT\ANDROIDNDK\ANDROID-NDK-R16B\SYSROOT\USR\INCLUDE\LINUX\LIMITS.H
C:\MICROSOFT\ANDROIDNDK\ANDROID-NDK-R16B\SYSROOT\USR\INCLUDE\BITS\POSIX_LIMITS.H
C:\MICROSOFT\ANDROIDNDK\ANDROID-NDK-R16B\SYSROOT\USR\INCLUDE\LINUX\SIGNAL.H
C:\MICROSOFT\ANDROIDNDK\ANDROID-NDK-R16B\SYSROOT\USR\INCLUDE\ARM-LINUX-ANDROIDEABI\ASM\SIGNAL.H
C:\MICROSOFT\ANDROIDNDK\ANDROID-NDK-R16B\SYSROOT\USR\INCLUDE\ASM-GENERIC\SIGNAL-DEFS.H
C:\MICROSOFT\ANDROIDNDK\ANDROID-NDK-R16B\SYSROOT\USR\INCLUDE\ARM-LINUX-ANDROIDEABI\ASM\SIGINFO.H
C:\MICROSOFT\ANDROIDNDK\ANDROID-NDK-R16B\SYSROOT\USR\INCLUDE\ASM-GENERIC\SIGINFO.H
C:\MICROSOFT\ANDROIDNDK\ANDROID-NDK-R16B\SYSROOT\USR\INCLUDE\SYS\UCONTEXT.H
C:\MICROSOFT\ANDROIDNDK\ANDROID-NDK-R16B\SYSROOT\USR\INCLUDE\SYS\USER.H
C:\MICROSOFT\ANDROIDNDK\ANDROID-NDK-R16B\SYSROOT\USR\INCLUDE\ANDROID\LEGACY_SIGNAL_INLINES.H
C:\MICROSOFT\ANDROIDNDK\ANDROID-NDK-R16B\SYSROOT\USR\INCLUDE\XLOCALE.H
C:\MICROSOFT\ANDROIDNDK\ANDROID-NDK-R16B\SYSROOT\USR\INCLUDE\BITS\MBSTATE_T.H
C:\MICROSOFT\ANDROIDNDK\ANDROID-NDK-R16B\SYSROOT\USR\INCLUDE\BITS\WCTYPE.H
C:\MICROSOFT\ANDROIDNDK\ANDROID-NDK-R16B\SOURCES\CXX-STL\LLVM-LIBC++\INCLUDE\__LOCALE
C:\MICROSOFT\ANDROIDNDK\ANDROID-NDK-R16B\SOURCES\CXX-STL\LLVM-LIBC++\INCLUDE\STRING
C:\MICROSOFT\ANDROIDNDK\ANDROID-NDK-R16B\SOURCES\CXX-STL\LLVM-LIBC++\INCLUDE\STRING_VIEW
C:\MICROSOFT\ANDROIDNDK\ANDROID-NDK-R16B\SOURCES\CXX-STL\LLVM-LIBC++\INCLUDE\__STRING
C:\MICROSOFT\ANDROIDNDK\ANDROID-NDK-R16B\SOURCES\CXX-STL\LLVM-LIBC++\INCLUDE\ALGORITHM
C:\MICROSOFT\ANDROIDNDK\ANDROID-NDK-R16B\SOURCES\CXX-STL\LLVM-LIBC++\INCLUDE\INITIALIZER_LIST
C:\MICROSOFT\ANDROIDNDK\ANDROID-NDK-R16B\SOURCES\CXX-STL\LLVM-LIBC++\INCLUDE\CSTDDEF
C:\MICROSOFT\ANDROIDNDK\ANDROID-NDK-R16B\SOURCES\CXX-STL\LLVM-LIBC++\INCLUDE\TYPE_TRAITS
C:\MICROSOFT\ANDROIDNDK\ANDROID-NDK-R16B\SOURCES\CXX-STL\LLVM-LIBC++\INCLUDE\CSTRING
C:\MICROSOFT\ANDROIDNDK\ANDROID-NDK-R16B\SOURCES\CXX-STL\LLVM-LIBC++\INCLUDE\STRING.H
C:\MICROSOFT\ANDROIDNDK\ANDROID-NDK-R16B\SYSROOT\USR\INCLUDE\STRING.H
C:\MICROSOFT\ANDROIDNDK\ANDROID-NDK-R16B\SYSROOT\USR\INCLUDE\BITS\STRCASECMP.H
C:\MICROSOFT\ANDROIDNDK\ANDROID-NDK-R16B\SYSROOT\USR\INCLUDE\STRINGS.H
C:\MICROSOFT\ANDROIDNDK\ANDROID-NDK-R16B\SYSROOT\USR\INCLUDE\ANDROID\LEGACY_STRINGS_INLINES.H
C:\MICROSOFT\ANDROIDNDK\ANDROID-NDK-R16B\SOURCES\CXX-STL\LLVM-LIBC++\INCLUDE\UTILITY
C:\MICROSOFT\ANDROIDNDK\ANDROID-NDK-R16B\SOURCES\CXX-STL\LLVM-LIBC++\INCLUDE\__TUPLE
C:\MICROSOFT\ANDROIDNDK\ANDROID-NDK-R16B\SOURCES\CXX-STL\LLVM-LIBC++\INCLUDE\CSTDINT
C:\MICROSOFT\ANDROIDNDK\ANDROID-NDK-R16B\SOURCES\CXX-STL\LLVM-LIBC++\INCLUDE\__DEBUG
C:\MICROSOFT\ANDROIDNDK\ANDROID-NDK-R16B\SOURCES\CXX-STL\LLVM-LIBC++\INCLUDE\MEMORY
C:\MICROSOFT\ANDROIDNDK\ANDROID-NDK-R16B\SOURCES\CXX-STL\LLVM-LIBC++\INCLUDE\TYPEINFO
C:\MICROSOFT\ANDROIDNDK\ANDROID-NDK-R16B\SOURCES\CXX-STL\LLVM-LIBC++\INCLUDE\EXCEPTION
C:\MICROSOFT\ANDROIDNDK\ANDROID-NDK-R16B\SOURCES\CXX-STL\LLVM-LIBC++\INCLUDE\CSTDLIB
C:\MICROSOFT\ANDROIDNDK\ANDROID-NDK-R16B\SOURCES\CXX-STL\LLVM-LIBC++\INCLUDE\STDLIB.H
C:\MICROSOFT\ANDROIDNDK\ANDROID-NDK-R16B\SOURCES\ANDROID\SUPPORT\INCLUDE\STDLIB.H
C:\MICROSOFT\ANDROIDNDK\ANDROID-NDK-R16B\SYSROOT\USR\INCLUDE\STDLIB.H
C:\MICROSOFT\ANDROIDNDK\ANDROID-NDK-R16B\SYSROOT\USR\INCLUDE\ALLOCA.H
C:\MICROSOFT\ANDROIDNDK\ANDROID-NDK-R16B\SYSROOT\USR\INCLUDE\MALLOC.H
C:\MICROSOFT\ANDROIDNDK\ANDROID-NDK-R16B\SYSROOT\USR\INCLUDE\ANDROID\LEGACY_STDLIB_INLINES.H
C:\MICROSOFT\ANDROIDNDK\ANDROID-NDK-R16B\SOURCES\CXX-STL\LLVM-LIBC++\INCLUDE\NEW
C:\MICROSOFT\ANDROIDNDK\ANDROID-NDK-R16B\SOURCES\CXX-STL\LLVM-LIBC++\INCLUDE\LIMITS
C:\MICROSOFT\ANDROIDNDK\ANDROID-NDK-R16B\SOURCES\CXX-STL\LLVM-LIBC++\INCLUDE\__UNDEF_MACROS
C:\MICROSOFT\ANDROIDNDK\ANDROID-NDK-R16B\SOURCES\CXX-STL\LLVM-LIBC++\INCLUDE\ITERATOR
C:\MICROSOFT\ANDROIDNDK\ANDROID-NDK-R16B\SOURCES\CXX-STL\LLVM-LIBC++\INCLUDE\__FUNCTIONAL_BASE
C:\MICROSOFT\ANDROIDNDK\ANDROID-NDK-R16B\SOURCES\CXX-STL\LLVM-LIBC++\INCLUDE\TUPLE
C:\MICROSOFT\ANDROIDNDK\ANDROID-NDK-R16B\SOURCES\CXX-STL\LLVM-LIBC++\INCLUDE\STDEXCEPT
C:\MICROSOFT\ANDROIDNDK\ANDROID-NDK-R16B\SOURCES\CXX-STL\LLVM-LIBC++\INCLUDE\CASSERT
C:\MICROSOFT\ANDROIDNDK\ANDROID-NDK-R16B\SYSROOT\USR\INCLUDE\ASSERT.H
C:\MICROSOFT\ANDROIDNDK\ANDROID-NDK-R16B\SOURCES\CXX-STL\LLVM-LIBC++\INCLUDE\ATOMIC
C:\MICROSOFT\ANDROIDNDK\ANDROID-NDK-R16B\SOURCES\CXX-STL\LLVM-LIBC++\INCLUDE\CSTDIO
C:\MICROSOFT\ANDROIDNDK\ANDROID-NDK-R16B\SOURCES\CXX-STL\LLVM-LIBC++\INCLUDE\CWCHAR
C:\MICROSOFT\ANDROIDNDK\ANDROID-NDK-R16B\SOURCES\CXX-STL\LLVM-LIBC++\INCLUDE\CWCTYPE
C:\MICROSOFT\ANDROIDNDK\ANDROID-NDK-R16B\SOURCES\CXX-STL\LLVM-LIBC++\INCLUDE\CCTYPE
C:\MICROSOFT\ANDROIDNDK\ANDROID-NDK-R16B\SOURCES\CXX-STL\LLVM-LIBC++\INCLUDE\CTYPE.H
C:\MICROSOFT\ANDROIDNDK\ANDROID-NDK-R16B\SYSROOT\USR\INCLUDE\CTYPE.H
C:\MICROSOFT\ANDROIDNDK\ANDROID-NDK-R16B\SOURCES\CXX-STL\LLVM-LIBC++\INCLUDE\WCTYPE.H
C:\MICROSOFT\ANDROIDNDK\ANDROID-NDK-R16B\SOURCES\ANDROID\SUPPORT\INCLUDE\WCTYPE.H
C:\MICROSOFT\ANDROIDNDK\ANDROID-NDK-R16B\SYSROOT\USR\INCLUDE\WCTYPE.H
C:\MICROSOFT\ANDROIDNDK\ANDROID-NDK-R16B\SOURCES\CXX-STL\LLVM-LIBC++\INCLUDE\MUTEX
C:\MICROSOFT\ANDROIDNDK\ANDROID-NDK-R16B\SOURCES\CXX-STL\LLVM-LIBC++\INCLUDE\__MUTEX_BASE
C:\MICROSOFT\ANDROIDNDK\ANDROID-NDK-R16B\SOURCES\CXX-STL\LLVM-LIBC++\INCLUDE\CHRONO
C:\MICROSOFT\ANDROIDNDK\ANDROID-NDK-R16B\SOURCES\CXX-STL\LLVM-LIBC++\INCLUDE\CTIME
C:\MICROSOFT\ANDROIDNDK\ANDROID-NDK-R16B\SOURCES\CXX-STL\LLVM-LIBC++\INCLUDE\RATIO
C:\MICROSOFT\ANDROIDNDK\ANDROID-NDK-R16B\SOURCES\CXX-STL\LLVM-LIBC++\INCLUDE\CLIMITS
C:\MICROSOFT\ANDROIDNDK\ANDROID-NDK-R16B\SOURCES\CXX-STL\LLVM-LIBC++\INCLUDE\SYSTEM_ERROR
C:\MICROSOFT\ANDROIDNDK\ANDROID-NDK-R16B\SOURCES\CXX-STL\LLVM-LIBC++\INCLUDE\CERRNO
C:\MICROSOFT\ANDROIDNDK\ANDROID-NDK-R16B\SOURCES\CXX-STL\LLVM-LIBC++\INCLUDE\ERRNO.H
C:\MICROSOFT\ANDROIDNDK\ANDROID-NDK-R16B\SYSROOT\USR\INCLUDE\ERRNO.H
C:\MICROSOFT\ANDROIDNDK\ANDROID-NDK-R16B\SYSROOT\USR\INCLUDE\LINUX\ERRNO.H
C:\MICROSOFT\ANDROIDNDK\ANDROID-NDK-R16B\SYSROOT\USR\INCLUDE\ARM-LINUX-ANDROIDEABI\ASM\ERRNO.H
C:\MICROSOFT\ANDROIDNDK\ANDROID-NDK-R16B\SYSROOT\USR\INCLUDE\ASM-GENERIC\ERRNO.H
C:\MICROSOFT\ANDROIDNDK\ANDROID-NDK-R16B\SYSROOT\USR\INCLUDE\ASM-GENERIC\ERRNO-BASE.H
C:\MICROSOFT\ANDROIDNDK\ANDROID-NDK-R16B\SYSROOT\USR\INCLUDE\ANDROID\LEGACY_ERRNO_INLINES.H
C:\MICROSOFT\ANDROIDNDK\ANDROID-NDK-R16B\SOURCES\CXX-STL\LLVM-LIBC++\INCLUDE\__THREADING_SUPPORT
C:\MICROSOFT\ANDROIDNDK\ANDROID-NDK-R16B\SYSROOT\USR\INCLUDE\SCHED.H
C:\MICROSOFT\ANDROIDNDK\ANDROID-NDK-R16B\SYSROOT\USR\INCLUDE\LINUX\SCHED.H
C:\MICROSOFT\ANDROIDNDK\ANDROID-NDK-R16B\SOURCES\CXX-STL\LLVM-LIBC++\INCLUDE\FUNCTIONAL
C:\MICROSOFT\ANDROIDNDK\ANDROID-NDK-R16B\SOURCES\CXX-STL\LLVM-LIBC++\INCLUDE\LOCALE.H
C:\MICROSOFT\ANDROIDNDK\ANDROID-NDK-R16B\SOURCES\ANDROID\SUPPORT\INCLUDE\LOCALE.H
C:\MICROSOFT\ANDROIDNDK\ANDROID-NDK-R16B\SYSROOT\USR\INCLUDE\LOCALE.H
C:\MICROSOFT\ANDROIDNDK\ANDROID-NDK-R16B\SOURCES\CXX-STL\LLVM-LIBC++\INCLUDE\STREAMBUF
C:\MICROSOFT\ANDROIDNDK\ANDROID-NDK-R16B\SOURCES\CXX-STL\LLVM-LIBC++\INCLUDE\ISTREAM
C:\MICROSOFT\ANDROIDNDK\ANDROID-NDK-R16B\SOURCES\CXX-STL\LLVM-LIBC++\INCLUDE\OSTREAM
C:\MICROSOFT\ANDROIDNDK\ANDROID-NDK-R16B\SOURCES\CXX-STL\LLVM-LIBC++\INCLUDE\LOCALE
C:\MICROSOFT\ANDROIDNDK\ANDROID-NDK-R16B\SOURCES\CXX-STL\LLVM-LIBC++\INCLUDE\CSTDARG
C:\MICROSOFT\ANDROIDNDK\ANDROID-NDK-R16B\SOURCES\CXX-STL\LLVM-LIBC++\INCLUDE\__BSD_LOCALE_FALLBACKS.H
C:\MICROSOFT\ANDROIDNDK\ANDROID-NDK-R16B\SOURCES\CXX-STL\LLVM-LIBC++\INCLUDE\BITSET
C:\MICROSOFT\ANDROIDNDK\ANDROID-NDK-R16B\SOURCES\CXX-STL\LLVM-LIBC++\INCLUDE\__BIT_REFERENCE
C:\MICROSOFT\ANDROIDNDK\ANDROID-NDK-R16B\SOURCES\CXX-STL\LLVM-LIBC++\INCLUDE\VECTOR
C:\MICROSOFT\ANDROIDNDK\ANDROID-NDK-R16B\SOURCES\CXX-STL\LLVM-LIBC++\INCLUDE\__SPLIT_BUFFER
C:\USERS\VASIC\LIBRARIES\OPENCV-ANDROID-SDK\SDK\NATIVE\JNI\INCLUDE\OPENCV2\CORE.HPP
C:\USERS\VASIC\LIBRARIES\OPENCV-ANDROID-SDK\SDK\NATIVE\JNI\INCLUDE\OPENCV2\CORE\CVDEF.H
C:\USERS\VASIC\LIBRARIES\OPENCV-ANDROID-SDK\SDK\NATIVE\JNI\INCLUDE\OPENCV2\CORE\HAL\INTERFACE.H
C:\USERS\VASIC\LIBRARIES\OPENCV-ANDROID-SDK\SDK\NATIVE\JNI\INCLUDE\OPENCV2\CORE\CV_CPU_DISPATCH.H
C:\MICROSOFT\ANDROIDNDK\ANDROID-NDK-R16B\TOOLCHAINS\LLVM\PREBUILT\WINDOWS\LIB64\CLANG\5.0.300080\INCLUDE\ARM_NEON.H
C:\MICROSOFT\ANDROIDNDK\ANDROID-NDK-R16B\SOURCES\CXX-STL\LLVM-LIBC++\INCLUDE\ARRAY
C:\USERS\VASIC\LIBRARIES\OPENCV-ANDROID-SDK\SDK\NATIVE\JNI\INCLUDE\OPENCV2\CORE\VERSION.HPP
C:\USERS\VASIC\LIBRARIES\OPENCV-ANDROID-SDK\SDK\NATIVE\JNI\INCLUDE\OPENCV2\CORE\BASE.HPP
C:\USERS\VASIC\LIBRARIES\OPENCV-ANDROID-SDK\SDK\NATIVE\JNI\INCLUDE\OPENCV2\OPENCV_MODULES.HPP
C:\USERS\VASIC\LIBRARIES\OPENCV-ANDROID-SDK\SDK\NATIVE\JNI\INCLUDE\OPENCV2\CORE\CVSTD.HPP
C:\MICROSOFT\ANDROIDNDK\ANDROID-NDK-R16B\SOURCES\CXX-STL\LLVM-LIBC++\INCLUDE\CMATH
C:\MICROSOFT\ANDROIDNDK\ANDROID-NDK-R16B\SOURCES\CXX-STL\LLVM-LIBC++\INCLUDE\MATH.H
C:\MICROSOFT\ANDROIDNDK\ANDROID-NDK-R16B\SOURCES\ANDROID\SUPPORT\INCLUDE\MATH.H
C:\MICROSOFT\ANDROIDNDK\ANDROID-NDK-R16B\SYSROOT\USR\INCLUDE\MATH.H
C:\USERS\VASIC\LIBRARIES\OPENCV-ANDROID-SDK\SDK\NATIVE\JNI\INCLUDE\OPENCV2\CORE\CVSTD_WRAPPER.HPP
C:\USERS\VASIC\LIBRARIES\OPENCV-ANDROID-SDK\SDK\NATIVE\JNI\INCLUDE\OPENCV2\CORE\NEON_UTILS.HPP
C:\USERS\VASIC\LIBRARIES\OPENCV-ANDROID-SDK\SDK\NATIVE\JNI\INCLUDE\OPENCV2\CORE\VSX_UTILS.HPP
C:\USERS\VASIC\LIBRARIES\OPENCV-ANDROID-SDK\SDK\NATIVE\JNI\INCLUDE\OPENCV2\CORE\CHECK.HPP
C:\USERS\VASIC\LIBRARIES\OPENCV-ANDROID-SDK\SDK\NATIVE\JNI\INCLUDE\OPENCV2\CORE\TRAITS.HPP
C:\USERS\VASIC\LIBRARIES\OPENCV-ANDROID-SDK\SDK\NATIVE\JNI\INCLUDE\OPENCV2\CORE\MATX.HPP
C:\USERS\VASIC\LIBRARIES\OPENCV-ANDROID-SDK\SDK\NATIVE\JNI\INCLUDE\OPENCV2\CORE\SATURATE.HPP
C:\USERS\VASIC\LIBRARIES\OPENCV-ANDROID-SDK\SDK\NATIVE\JNI\INCLUDE\OPENCV2\CORE\FAST_MATH.HPP
C:\USERS\VASIC\LIBRARIES\OPENCV-ANDROID-SDK\SDK\NATIVE\JNI\INCLUDE\OPENCV2\CORE\TYPES.HPP
C:\MICROSOFT\ANDROIDNDK\ANDROID-NDK-R16B\SOURCES\CXX-STL\LLVM-LIBC++\INCLUDE\CFLOAT
C:\USERS\VASIC\LIBRARIES\OPENCV-ANDROID-SDK\SDK\NATIVE\JNI\INCLUDE\OPENCV2\CORE\MAT.HPP
C:\USERS\VASIC\LIBRARIES\OPENCV-ANDROID-SDK\SDK\NATIVE\JNI\INCLUDE\OPENCV2\CORE\BUFFERPOOL.HPP
C:\USERS\VASIC\LIBRARIES\OPENCV-ANDROID-SDK\SDK\NATIVE\JNI\INCLUDE\OPENCV2\CORE\MAT.INL.HPP
C:\USERS\VASIC\LIBRARIES\OPENCV-ANDROID-SDK\SDK\NATIVE\JNI\INCLUDE\OPENCV2\CORE\PERSISTENCE.HPP
C:\USERS\VASIC\LIBRARIES\OPENCV-ANDROID-SDK\SDK\NATIVE\JNI\INCLUDE\OPENCV2\CORE\OPERATIONS.HPP
C:\USERS\VASIC\LIBRARIES\OPENCV-ANDROID-SDK\SDK\NATIVE\JNI\INCLUDE\OPENCV2\CORE\CVSTD.INL.HPP
C:\MICROSOFT\ANDROIDNDK\ANDROID-NDK-R16B\SOURCES\CXX-STL\LLVM-LIBC++\INCLUDE\COMPLEX
C:\MICROSOFT\ANDROIDNDK\ANDROID-NDK-R16B\SOURCES\CXX-STL\LLVM-LIBC++\INCLUDE\SSTREAM
C:\USERS\VASIC\LIBRARIES\OPENCV-ANDROID-SDK\SDK\NATIVE\JNI\INCLUDE\OPENCV2\CORE\UTILITY.HPP
C:\USERS\VASIC\LIBRARIES\OPENCV-ANDROID-SDK\SDK\NATIVE\JNI\INCLUDE\OPENCV2\CORE\OPTIM.HPP
C:\USERS\VASIC\LIBRARIES\OPENCV-ANDROID-SDK\SDK\NATIVE\JNI\INCLUDE\OPENCV2\CORE\OVX.HPP
C:\USERS\VASIC\LIBRARIES\OPENCV-ANDROID-SDK\SDK\NATIVE\JNI\INCLUDE\OPENCV2\IMGPROC.HPP
C:\USERS\VASIC\LIBRARIES\OPENCV-ANDROID-SDK\SDK\NATIVE\JNI\INCLUDE\OPENCV2\HIGHGUI.HPP
C:\USERS\VASIC\LIBRARIES\OPENCV-ANDROID-SDK\SDK\NATIVE\JNI\INCLUDE\OPENCV2\IMGCODECS.HPP
C:\USERS\VASIC\LIBRARIES\OPENCV-ANDROID-SDK\SDK\NATIVE\JNI\INCLUDE\OPENCV2\VIDEOIO.HPP
C:\USERS\VASIC\LIBRARIES\OPENCV-ANDROID-SDK\SDK\NATIVE\JNI\INCLUDE\OPENCV2\DNN.HPP
C:\USERS\VASIC\LIBRARIES\OPENCV-ANDROID-SDK\SDK\NATIVE\JNI\INCLUDE\OPENCV2\DNN\DNN.HPP
C:\USERS\VASIC\LIBRARIES\OPENCV-ANDROID-SDK\SDK\NATIVE\JNI\INCLUDE\OPENCV2\CORE\ASYNC.HPP
C:\USERS\VASIC\LIBRARIES\OPENCV-ANDROID-SDK\SDK\NATIVE\JNI\INCLUDE\OPENCV2\DNN\VERSION.HPP
C:\USERS\VASIC\LIBRARIES\OPENCV-ANDROID-SDK\SDK\NATIVE\JNI\INCLUDE\OPENCV2\DNN\DICT.HPP
C:\MICROSOFT\ANDROIDNDK\ANDROID-NDK-R16B\SOURCES\CXX-STL\LLVM-LIBC++\INCLUDE\MAP
C:\MICROSOFT\ANDROIDNDK\ANDROID-NDK-R16B\SOURCES\CXX-STL\LLVM-LIBC++\INCLUDE\__TREE
C:\USERS\VASIC\LIBRARIES\OPENCV-ANDROID-SDK\SDK\NATIVE\JNI\INCLUDE\OPENCV2\DNN\LAYER.HPP
C:\USERS\VASIC\LIBRARIES\OPENCV-ANDROID-SDK\SDK\NATIVE\JNI\INCLUDE\OPENCV2\DNN\DNN.INL.HPP
C:\USERS\VASIC\LIBRARIES\OPENCV-ANDROID-SDK\SDK\NATIVE\JNI\INCLUDE\OPENCV2\DNN\UTILS\INFERENCE_ENGINE.HPP
C:\MICROSOFT\ANDROIDNDK\ANDROID-NDK-R16B\SOURCES\CXX-STL\LLVM-LIBC++\INCLUDE\FSTREAM
